TO:	80 176 103 191	762 1000	11875011.png
INSTRUCTIONS:	76 226 189 239	762 1000	11875011.png
FAX	248 465 278 477	762 1000	11875011.png
NUMBERS:	279 463 352 476	762 1000	11875011.png
3.	85 626 97 643	762 1000	11875011.png
465658104	487 872 600 890	762 1000	11875011.png
1-23-95	297 796 340 813	762 1000	11875011.png
BROWN	166 61 222 76	762 1000	11875011.png
&	226 61 241 76	762 1000	11875011.png
WILLIAMSON	243 61 341 76	762 1000	11875011.png
TOBACCO	341 63 411 73	762 1000	11875011.png
CORPORATION	409 60 519 70	762 1000	11875011.png
BID	269 76 301 89	762 1000	11875011.png
REQUEST	306 76 369 88	762 1000	11875011.png
FORM	369 76 416 89	762 1000	11875011.png
(QUALITATIVE	249 91 354 106	762 1000	11875011.png
RESEARCH)	357 90 442 103	762 1000	11875011.png
1995-	223 140 255 157	762 1000	11875011.png
13D	256 140 281 157	762 1000	11875011.png
H.L.	221 159 254 172	762 1000	11875011.png
Williams	256 159 306 171	762 1000	11875011.png
Goldfarb	221 174 274 187	762 1000	11875011.png
Consultants	277 174 342 186	762 1000	11875011.png
PROJECT	73 145 134 158	762 1000	11875011.png
NUMBER:	138 145 203 158	762 1000	11875011.png
B&W	75 161 112 174	762 1000	11875011.png
ORIGINATOR:	113 161 204 171	762 1000	11875011.png
1.	80 257 93 272	762 1000	11875011.png
THE	116 257 148 269	762 1000	11875011.png
FOLLOWING	148 256 234 269	762 1000	11875011.png
DOCUMENT	234 254 314 267	762 1000	11875011.png
IS	316 254 329 269	762 1000	11875011.png
DIVIDED	332 252 393 265	762 1000	11875011.png
INTO	394 252 427 265	762 1000	11875011.png
TWO	432 252 460 265	762 1000	11875011.png
SECTIONS.	463 251 533 264	762 1000	11875011.png
SECTION	121 291 186 304	762 1000	11875011.png
ONE	186 286 218 303	762 1000	11875011.png
CONTAINS	219 286 290 303	762 1000	11875011.png
THE	292 286 320 299	762 1000	11875011.png
PROJECT	324 284 380 297	762 1000	11875011.png
DESCRIPTION	385 284 475 297	762 1000	11875011.png
AND	477 284 505 297	762 1000	11875011.png
SPECIFICATIONS	120 306 233 318	762 1000	11875011.png
FROM	233 304 275 317	762 1000	11875011.png
B&W.	276 302 313 315	762 1000	11875011.png
ALL	319 301 349 318	762 1000	11875011.png
BIDS	347 302 382 317	762 1000	11875011.png
SHOULD	384 301 442 316	762 1000	11875011.png
BE	440 299 462 314	762 1000	11875011.png
BASED	462 301 513 314	762 1000	11875011.png
ON	120 319 147 336	762 1000	11875011.png
THE	146 317 174 335	762 1000	11875011.png
SPECIFICATIONS	174 317 285 332	762 1000	11875011.png
IN	286 317 306 332	762 1000	11875011.png
THIS	304 317 339 330	762 1000	11875011.png
DOCUMENT.	339 317 422 330	762 1000	11875011.png
SECTION	123 352 184 365	762 1000	11875011.png
TWO	188 352 226 367	762 1000	11875011.png
SHOULD	226 352 281 364	762 1000	11875011.png
BE	284 350 302 365	762 1000	11875011.png
COMPLETED	304 349 389 364	762 1000	11875011.png
BY	392 349 414 362	762 1000	11875011.png
THE	412 350 444 363	762 1000	11875011.png
RESEARCH	440 347 515 360	762 1000	11875011.png
AGENCY	123 367 181 382	762 1000	11875011.png
AND	181 367 214 382	762 1000	11875011.png
RETURNED	218 369 291 381	762 1000	11875011.png
BY	292 369 310 382	762 1000	11875011.png
FAX	314 369 341 382	762 1000	11875011.png
TO	346 367 363 380	762 1000	11875011.png
THE	365 365 395 380	762 1000	11875011.png
FOLLOWING	397 364 478 379	762 1000	11875011.png
PERSON:	480 364 540 377	762 1000	11875011.png
HAROLD	244 399 302 414	762 1000	11875011.png
WILLIAMS	307 399 373 412	762 1000	11875011.png
BROWN	248 415 301 430	762 1000	11875011.png
&	301 415 314 430	762 1000	11875011.png
WILLIAMSON	314 414 402 427	762 1000	11875011.png
TOBACCO	404 412 474 424	762 1000	11875011.png
CORPORATION	473 414 573 426	762 1000	11875011.png
LOUISVILLE,	244 430 330 443	762 1000	11875011.png
KENTUCKY	332 429 412 441	762 1000	11875011.png
U.S.A	248 445 286 460	762 1000	11875011.png
(502)	359 460 391 477	762 1000	11875011.png
568-7313	390 462 446 477	762 1000	11875011.png
or	445 463 462 476	762 1000	11875011.png
(502)	462 457 495 477	762 1000	11875011.png
568-8319	495 457 553 474	762 1000	11875011.png
2.	83 497 95 510	762 1000	11875011.png
IN	123 497 145 510	762 1000	11875011.png
ORDER	146 497 193 510	762 1000	11875011.png
TO	194 495 211 510	762 1000	11875011.png
ALLOW	213 495 266 508	762 1000	11875011.png
US	266 495 286 508	762 1000	11875011.png
TO	287 495 309 508	762 1000	11875011.png
COMPARE	311 493 376 508	762 1000	11875011.png
BIDS,	375 495 418 507	762 1000	11875011.png
WE	419 493 441 503	762 1000	11875011.png
REQUEST	442 492 507 505	762 1000	11875011.png
THAT	507 490 545 505	762 1000	11875011.png
YOU	123 512 155 527	762 1000	11875011.png
SUBMIT	156 508 211 523	762 1000	11875011.png
A	213 513 225 523	762 1000	11875011.png
BID	226 510 253 523	762 1000	11875011.png
FOR	251 508 281 525	762 1000	11875011.png
THE	281 510 314 525	762 1000	11875011.png
RESEARCH	311 508 389 523	762 1000	11875011.png
AS	389 510 409 523	762 1000	11875011.png
SPECIFIED	410 510 476 523	762 1000	11875011.png
IN	480 507 500 522	762 1000	11875011.png
SECTION	500 507 558 522	762 1000	11875011.png
ONE.	123 528 158 541	762 1000	11875011.png
SUGGESTIONS	128 560 221 575	762 1000	11875011.png
ALTERNATIVE	228 560 351 570	762 1000	11875011.png
DESIGNS	352 558 407 571	762 1000	11875011.png
FROM	410 558 453 570	762 1000	11875011.png
THE	457 556 482 569	762 1000	11875011.png
AGENCY	483 556 543 568	762 1000	11875011.png
ARE	126 576 154 589	762 1000	11875011.png
WELCOME.	154 576 230 589	762 1000	11875011.png
HOWEVER,	233 576 311 589	762 1000	11875011.png
THESE	309 575 356 588	762 1000	11875011.png
SHOULD	357 573 417 586	762 1000	11875011.png
BE	419 573 436 586	762 1000	11875011.png
SUBMITTED	437 573 518 586	762 1000	11875011.png
AS	518 571 536 586	762 1000	11875011.png
SEPARATE	125 590 198 605	762 1000	11875011.png
DOCUMENTS	199 593 287 603	762 1000	11875011.png
APPENDED	287 591 358 604	762 1000	11875011.png
TO	360 590 380 603	762 1000	11875011.png
THIS	384 588 417 605	762 1000	11875011.png
BID	417 588 445 601	762 1000	11875011.png
FORM.	444 590 489 600	762 1000	11875011.png
IF	125 625 142 640	762 1000	11875011.png
YOU	143 625 175 638	762 1000	11875011.png
HAVE	176 625 214 637	762 1000	11875011.png
ANY	216 621 246 638	762 1000	11875011.png
QUESTIONS,	251 625 329 640	762 1000	11875011.png
PLEASE	332 623 385 636	762 1000	11875011.png
CONTACT	385 623 455 633	762 1000	11875011.png
THE	453 621 485 633	762 1000	11875011.png
FOLLOWING	485 620 570 633	762 1000	11875011.png
PERSON:	126 640 186 653	762 1000	11875011.png
HAROLD	249 653 307 670	762 1000	11875011.png
WILLIAMS	309 656 382 666	762 1000	11875011.png
BROWN	248 669 304 684	762 1000	11875011.png
&	304 671 317 684	762 1000	11875011.png
WILLIAMSON	319 669 407 682	762 1000	11875011.png
TOBACCO	409 668 475 681	762 1000	11875011.png
CORPORATION	475 668 576 680	762 1000	11875011.png
LOUISVILLE,	252 686 337 701	762 1000	11875011.png
U.S.A	252 706 289 714	762 1000	11875011.png
(502)	364 718 392 735	762 1000	11875011.png
568-7313	394 716 452 729	762 1000	11875011.png
or	453 719 466 729	762 1000	11875011.png
(502)	468 713 496 730	762 1000	11875011.png
568-8319	500 714 555 729	762 1000	11875011.png
FAX	251 719 281 734	762 1000	11875011.png
NUMBERS:	284 719 359 732	762 1000	11875011.png
OTHER	88 769 139 782	762 1000	11875011.png
INFORMATION:	140 767 253 780	762 1000	11875011.png
DATE	88 802 128 814	762 1000	11875011.png
REQUESTED:	126 801 216 813	762 1000	11875011.png
DEADLINE	86 824 161 834	762 1000	11875011.png
FOR	161 822 188 835	762 1000	11875011.png
BID	188 822 218 834	762 1000	11875011.png
RECEIPT:	218 821 279 833	762 1000	11875011.png
1-26-95	297 819 345 834	762 1000	11875011.png
9:00	355 821 382 834	762 1000	11875011.png
AM	384 821 409 833	762 1000	11875011.png
EST	405 819 433 832	762 1000	11875011.png
PRODUCED	2 953 73 965	762 1000	11875011.png
FROM	78 953 120 965	762 1000	11875011.png
B&W	121 952 156 965	762 1000	11875011.png
WEB	159 952 187 965	762 1000	11875011.png
SITE	193 952 235 965	762 1000	11875011.png

