NAME	106 415 156 429
Strokes	676 369 757 382
NAME	112 797 163 810
A	924 898 956 932
<>	613 353 660 366
<>	614 370 660 381
SPORTS	340 49 443 66
REGISTRATION	449 45 627 69
37TH	339 67 405 85
ANNUAL	412 70 510 88
MEETING	523 70 631 85
AUGUST	372 89 473 109
15-18,	482 89 551 110
1996	558 89 612 109
RYE-	324 110 385 128
TOWN	386 112 460 130
HILTON	472 112 556 129
HOTEL	569 110 653 128
RYE,	390 131 447 152
NEW	456 128 513 150
YORK	519 131 585 148
Make	105 186 155 199
copies	171 186 245 200
of	263 184 291 201
this	310 184 360 197
form	377 183 427 197
if	444 183 468 197
necessary.	484 186 598 200
Complete	639 184 737 199
applicable	753 184 869 199
section	105 201 189 214
(s)	191 200 220 215
and	236 200 274 213
return	283 201 358 212
to	370 200 394 213
NYSAWMD.	403 200 496 213
LORILLARD	287 229 422 249
TOBACCO	436 229 552 247
COMPANY	562 230 687 247
GOLF	105 286 171 306
TOURNAMENT	178 288 354 305
(Ladies	385 291 464 305
&	469 293 484 303
Men)	493 291 538 306
.	542 297 550 304
.	552 297 560 304
.	563 297 571 303
Friday,	572 291 655 309
August	667 292 738 307
16,	748 292 777 306
Tee	790 293 825 304
off	832 292 870 305
at	335 309 358 322
8:00	372 307 418 321
A.	427 310 449 321
M.	451 309 473 322
SHARP	486 307 547 322
(no	556 309 592 324
green	600 310 662 324
fee)	674 309 718 323
I	106 355 121 368
will	129 355 179 369
participate	189 355 324 370
in	335 353 361 367
the	370 353 408 367
Golf	418 353 465 366
Tournament	473 353 591 367
My	187 370 215 385
handicap	224 370 325 385
is:	337 369 370 382
FIRM	108 446 158 459
NAME	167 444 217 458
BROWN	204 550 298 570
&	311 550 331 567
WILLIAMSON	339 550 488 568
TOBACCO	505 550 622 568
CORPORATION	631 549 807 569
TENNIS	110 594 200 611
TOURNAMENT	209 594 387 609
(Ladies	419 595 498 612
&	510 598 521 609
Men)	532 596 577 613
.	580 603 588 609
.	593 603 598 609
.	604 603 612 609
Friday,	613 596 696 613
August	707 596 777 611
16,	790 596 821 611
starting	349 613 445 630
time	455 613 502 627
is	511 615 535 629
3:00	548 615 594 626
P.	604 615 626 628
M.	630 615 650 628
I	110 662 127 675
will	134 661 182 675
participate	193 661 329 676
in	340 661 364 675
the	375 662 412 673
Tennis	423 661 489 675
Tournament	502 662 618 675
I	114 677 125 688
would	134 676 196 689
classify	205 676 307 691
myself	315 675 389 690
as	398 677 424 688
(please	436 676 514 691
check	525 676 584 687
appropriate	594 677 728 691
box)	737 676 779 691
<>	112 705 158 719
Beginner	171 707 267 721
<>	112 722 159 735
Fair	168 722 218 735
<>	114 736 159 749
Good	171 737 221 748
<>	114 751 159 764
Excellent	171 751 279 764
FIRM	112 828 163 841
NAME	172 828 220 841
NYSAWMD,	143 906 237 920
INC.	250 905 296 919
211	312 905 348 918
EAST	358 906 410 917
43RD	419 905 465 919
STREET,	477 906 555 920
NEW	565 905 604 918
YORK,	613 906 672 920
NY	686 906 712 919
10017-4707	734 906 849 917
CONVFORM.96	116 937 178 948

