TO:	58 123 82 134	754 1000	81749056_9057.png
FROM:	61 149 101 162	754 1000	81749056_9057.png
SUBJECT:	61 206 116 223	754 1000	81749056_9057.png
X	438 143 451 155	754 1000	81749056_9057.png
None	132 334 165 351	754 1000	81749056_9057.png
DISTRIBUTION	70 240 157 251	754 1000	81749056_9057.png
PACKING	96 617 140 628	754 1000	81749056_9057.png
%	309 610 323 624	754 1000	81749056_9057.png
%	503 605 514 619	754 1000	81749056_9057.png
542	219 641 239 653	754 1000	81749056_9057.png
475	219 657 241 667	754 1000	81749056_9057.png
479	222 672 240 682	754 1000	81749056_9057.png
451	218 685 241 703	754 1000	81749056_9057.png
22%	304 638 328 650	754 1000	81749056_9057.png
19%	306 654 329 665	754 1000	81749056_9057.png
19%	307 670 328 684	754 1000	81749056_9057.png
18%	307 689 332 699	754 1000	81749056_9057.png
365	402 635 424 646	754 1000	81749056_9057.png
346	402 651 424 664	754 1000	81749056_9057.png
371	405 669 425 680	754 1000	81749056_9057.png
355	407 685 426 699	754 1000	81749056_9057.png
36%	497 632 522 644	754 1000	81749056_9057.png
34%	499 649 521 663	754 1000	81749056_9057.png
35%	500 682 521 695	754 1000	81749056_9057.png
36%	499 666 521 679	754 1000	81749056_9057.png
100's	72 676 100 690	754 1000	81749056_9057.png
2.471	477 534 509 545	754 1000	81749056_9057.png
1,020	480 563 509 581	754 1000	81749056_9057.png
30	210 829 231 846	754 1000	81749056_9057.png
$	203 861 213 874	754 1000	81749056_9057.png
20	289 830 311 841	754 1000	81749056_9057.png
30	363 829 385 842	754 1000	81749056_9057.png
3.00	214 861 236 873	754 1000	81749056_9057.png
PACKS	102 831 142 845	754 1000	81749056_9057.png
CARTONS	106 861 161 874	754 1000	81749056_9057.png
DORAL	197 812 243 826	754 1000	81749056_9057.png
BASIC	280 809 319 822	754 1000	81749056_9057.png
G.P.C	354 811 393 823	754 1000	81749056_9057.png
12/8/97	346 920 391 938	754 1000	81749056_9057.png
81749056	687 752 715 861	754 1000	81749056_9057.png
12/08/97	65 80 118 94	754 1000	81749056_9057.png
09:	131 80 153 90	754 1000	81749056_9057.png
01	156 81 169 90	754 1000	81749056_9057.png
FAX	176 77 202 90	754 1000	81749056_9057.png
1	207 79 217 89	754 1000	81749056_9057.png
732	219 79 239 90	754 1000	81749056_9057.png
583	244 80 266 90	754 1000	81749056_9057.png
8977	272 77 297 89	754 1000	81749056_9057.png
LORILLARD	354 79 411 89	754 1000	81749056_9057.png
TOE	417 77 436 89	754 1000	81749056_9057.png
CO	445 80 459 89	754 1000	81749056_9057.png
NYO	487 76 507 90	754 1000	81749056_9057.png
-	514 78 525 89	754 1000	81749056_9057.png
SALES	528 78 559 89	754 1000	81749056_9057.png
002/	607 74 642 89	754 1000	81749056_9057.png
003	642 77 666 89	754 1000	81749056_9057.png
S.	111 123 122 134	754 1000	81749056_9057.png
P.	124 123 137 134	754 1000	81749056_9057.png
ZOLOT	137 121 176 134	754 1000	81749056_9057.png
S.	109 149 121 160	754 1000	81749056_9057.png
P.	124 151 137 160	754 1000	81749056_9057.png
McBride	135 149 181 160	754 1000	81749056_9057.png
AREA	58 178 95 188	754 1000	81749056_9057.png
REGION:	96 178 147 190	754 1000	81749056_9057.png
DEC	359 141 384 156	754 1000	81749056_9057.png
8	387 144 396 158	754 1000	81749056_9057.png
JAN	361 173 385 184	754 1000	81749056_9057.png
19	387 170 400 183	754 1000	81749056_9057.png
SUBMISSION	436 112 512 124	754 1000	81749056_9057.png
DATE	515 109 544 124	754 1000	81749056_9057.png
FEB	525 142 546 155	754 1000	81749056_9057.png
23	550 140 563 152	754 1000	81749056_9057.png
MAVERICK	152 210 222 219	754 1000	81749056_9057.png
SPECIALS	222 206 280 218	754 1000	81749056_9057.png
NON-	280 207 310 218	754 1000	81749056_9057.png
MENTHOL-	309 206 373 218	754 1000	81749056_9057.png
EXPANSION	377 203 446 215	754 1000	81749056_9057.png
PROGRESS	447 204 505 213	754 1000	81749056_9057.png
REPORT	508 203 554 214	754 1000	81749056_9057.png
1/	159 177 174 187	754 1000	81749056_9057.png
20	173 177 191 187	754 1000	81749056_9057.png
DIRECT	63 265 105 280	754 1000	81749056_9057.png
ACCOUNTS	109 267 172 279	754 1000	81749056_9057.png
PROJECTED	175 265 242 278	754 1000	81749056_9057.png
TO	247 265 266 277	754 1000	81749056_9057.png
ACCEPT	264 265 310 276	754 1000	81749056_9057.png
WHICH	316 265 355 276	754 1000	81749056_9057.png
REFUSED	358 262 412 275	754 1000	81749056_9057.png
ONE	414 263 438 273	754 1000	81749056_9057.png
OR	439 261 460 273	754 1000	81749056_9057.png
MORE	460 262 495 272	754 1000	81749056_9057.png
PACKING	499 259 550 272	754 1000	81749056_9057.png
NAME	89 303 124 317	754 1000	81749056_9057.png
OF	128 304 147 315	754 1000	81749056_9057.png
ACCOUNT	151 302 205 315	754 1000	81749056_9057.png
#	235 291 244 301	754 1000	81749056_9057.png
OF	247 289 264 302	754 1000	81749056_9057.png
STORES	263 289 309 302	754 1000	81749056_9057.png
SUPPLIED	247 305 299 316	754 1000	81749056_9057.png
BOX	323 302 352 315	754 1000	81749056_9057.png
80's	329 313 350 327	754 1000	81749056_9057.png
LT.	367 304 386 314	754 1000	81749056_9057.png
BOX	390 303 415 314	754 1000	81749056_9057.png
80's	381 313 402 326	754 1000	81749056_9057.png
100's	433 304 462 316	754 1000	81749056_9057.png
LT.	490 301 510 311	754 1000	81749056_9057.png
100's	488 311 517 326	754 1000	81749056_9057.png
K.	537 303 549 316	754 1000	81749056_9057.png
S.	553 303 565 314	754 1000	81749056_9057.png
LT.	594 297 612 309	754 1000	81749056_9057.png
K.	591 309 602 319	754 1000	81749056_9057.png
S.	607 306 615 320	754 1000	81749056_9057.png
TOTAL	65 540 106 554	754 1000	81749056_9057.png
#	107 540 118 548	754 1000	81749056_9057.png
OF	120 539 134 550	754 1000	81749056_9057.png
INDEPENDENT	134 534 219 551	754 1000	81749056_9057.png
SPECIAL	222 534 268 548	754 1000	81749056_9057.png
EMPHASIS	273 535 332 544	754 1000	81749056_9057.png
OUTLETS:	335 533 390 546	754 1000	81749056_9057.png
TOTAL	70 573 106 584	754 1000	81749056_9057.png
#	109 573 121 584	754 1000	81749056_9057.png
OF	119 570 138 583	754 1000	81749056_9057.png
INDEPENDENT	138 569 219 581	754 1000	81749056_9057.png
NEWPORT	222 569 278 580	754 1000	81749056_9057.png
#1	283 567 297 578	754 1000	81749056_9057.png
CLUB	296 566 332 578	754 1000	81749056_9057.png
OUTLETS:	336 566 392 579	754 1000	81749056_9057.png
TOTAL	199 601 231 613	754 1000	81749056_9057.png
#	236 602 245 613	754 1000	81749056_9057.png
OF	243 602 257 613	754 1000	81749056_9057.png
SP	175 613 187 622	754 1000	81749056_9057.png
EMPHASIS	188 612 235 624	754 1000	81749056_9057.png
OUTLEIS	239 616 285 624	754 1000	81749056_9057.png
WITH	180 628 210 636	754 1000	81749056_9057.png
DISTRIBUTION	208 626 276 636	754 1000	81749056_9057.png
TOTAL	382 599 417 609	754 1000	81749056_9057.png
#	417 599 426 609	754 1000	81749056_9057.png
OF	426 597 440 610	754 1000	81749056_9057.png
NUMBER	345 610 387 618	754 1000	81749056_9057.png
ONE	390 611 409 620	754 1000	81749056_9057.png
CLUB	409 610 438 621	754 1000	81749056_9057.png
OUTLETS	438 610 479 619	754 1000	81749056_9057.png
WITH	365 623 394 632	754 1000	81749056_9057.png
DISTRIBUTION	395 622 460 632	754 1000	81749056_9057.png
BOX	69 644 93 657	754 1000	81749056_9057.png
80's	96 641 121 655	754 1000	81749056_9057.png
LT.	69 660 88 673	754 1000	81749056_9057.png
BOX	90 661 115 672	754 1000	81749056_9057.png
80's	118 660 143 672	754 1000	81749056_9057.png
LT.	72 694 90 707	754 1000	81749056_9057.png
100's	93 695 116 707	754 1000	81749056_9057.png
K.	69 711 82 722	754 1000	81749056_9057.png
S.	84 710 96 720	754 1000	81749056_9057.png
LT.	72 725 94 739	754 1000	81749056_9057.png
K.	93 726 105 738	754 1000	81749056_9057.png
S.	105 724 118 735	754 1000	81749056_9057.png
COMPETITIVE	78 761 164 773	754 1000	81749056_9057.png
PROMOTIONAL	166 760 256 771	754 1000	81749056_9057.png
ACTIVITY	257 756 312 769	754 1000	81749056_9057.png
PREDOMINANT	68 790 159 804	754 1000	81749056_9057.png
BUYDOWN	214 792 277 802	754 1000	81749056_9057.png
VALUE	280 789 319 802	754 1000	81749056_9057.png
OF	322 789 337 801	754 1000	81749056_9057.png
TARGETED	339 787 398 801	754 1000	81749056_9057.png
BRANDS	404 785 451 797	754 1000	81749056_9057.png
(DORAL	450 783 498 798	754 1000	81749056_9057.png
G.	501 785 510 796	754 1000	81749056_9057.png
P.	513 786 526 795	754 1000	81749056_9057.png
C/	525 785 544 794	754 1000	81749056_9057.png
BASIC)	544 783 580 795	754 1000	81749056_9057.png
(Where	101 877 129 887	754 1000	81749056_9057.png
Applicable)	131 874 168 886	754 1000	81749056_9057.png
Mav-	87 931 116 942	754 1000	81749056_9057.png
nm-	117 931 143 942	754 1000	81749056_9057.png
1.	145 926 157 941	754 1000	81749056_9057.png
xls	155 930 172 941	754 1000	81749056_9057.png
Page	584 919 617 933	754 1000	81749056_9057.png
1	619 922 631 933	754 1000	81749056_9057.png
of	632 920 645 932	754 1000	81749056_9057.png
2	646 919 657 931	754 1000	81749056_9057.png
$	283 859 290 870	754 1000	81749056_9057.png
2.00	290 860 312 870	754 1000	81749056_9057.png
$	360 858 367 870	754 1000	81749056_9057.png
3.00	366 857 389 869	754 1000	81749056_9057.png

