ITEM:	517 145 568 162
DATE:	143 112 198 129
BRAND:	144 140 208 155
SUMMARY	143 183 220 198
OF	229 184 253 195
PROJECT:	263 184 350 198
Attached	416 186 505 199
See	370 186 406 197
FUNDING:	135 404 227 418
SIGNATURES:	132 559 257 574
4514cbta	128 824 217 838
PROJECT	430 74 509 89
BRIEF	518 75 573 90
June	254 115 301 129
1,	308 115 330 129
1990	342 115 387 130
General	230 142 308 157
Merchandising	318 142 461 159
Nonspecific	232 155 351 170
Package	591 147 666 162
Fixture	678 147 755 162
Circle-K	763 148 856 163
Convenient	590 161 700 174
Stores	709 161 778 175
SUPPLIERS	139 251 240 265
BEING	250 253 307 267
CONSIDERED:	317 253 434 268
Chicago	139 278 219 295
Show	229 281 275 294
Display	137 306 220 321
Equation	227 307 316 324
Chicago	139 335 216 349
Display	227 335 305 352
Robert	139 360 204 377
Nielson	212 362 292 377
&	304 365 317 378
Associates	322 363 437 380
1990	139 430 181 445
Customized	192 432 303 447
Merchandising	311 433 455 451
Services	137 459 225 474
ESPNS	258 461 303 474
REQUESTING	132 598 246 615
MANAGER	253 599 333 614
MERCHANDISING	132 640 275 657
MANAGER	286 642 364 656
GROUP	129 682 186 697
PRODUCT	198 684 276 698
DIRECTOR	286 684 374 699
PURCHASING	128 725 242 740
DEPARTMENT	249 728 360 742
RETURN	125 768 195 781
TO:	204 770 237 783
REQUESTING	258 771 370 785
MANAGER	377 771 460 785
462231045	1 953 103 967
PRODUCED	5 969 91 983
FROM	104 969 152 982
B&W	162 968 200 983
WEB	208 969 246 982
SITE	258 968 304 982

